[
  {
    "name": "Nike Air Max 270",
    "price": "140",
    "path": "./img/air-max-270.jpeg",
    "article": "1",
    "color": "Green",
    "isFavourite": false
  },
  {
    "name": "Nike Air Max 260",
    "price": "130",
    "path": "./img/air-max-270-whi.jpeg",
    "article": "2",
    "color": "White",
    "isFavourite": false
  },
  {
    "name": "Nike Air Max 230",
    "price": "100",
    "path": "./img/air-max-230.jpeg",
    "article": "3",
    "color": "White",
    "isFavourite": false
  },
  {
    "name": "Nike Spark",
    "price": "130",
    "path": "./img/nike-spark.jpg",
    "article": "4",
    "color": "Beige",
    "isFavourite": false
  },
  {
    "name": "Nike Air Max 90",
    "price": "130",
    "path": "./img/nike-air-max-90.jpg",
    "article": "5",
    "color": "Pink",
    "isFavourite": false
  },
  {
    "name": "Nike Air Huarache",
    "price": "150",
    "path": "./img/nike-air-huarache.jpg",
    "article": "6",
    "color": "Lilac",
    "isFavourite": false
  },
  {
    "name": "Nike Air Max Dawn",
    "price": "120",
    "path": "./img/air-max-dawn.jpeg",
    "article": "7",
    "color": "White",
    "isFavourite": false
  },
  {
    "name": "Nike Giannis Immortality",
    "price": "120",
    "path": "./img/immortality.jpg",
    "article": "8",
    "color": "Blue",
    "isFavourite": false
  },
  {
    "name": "Nike Air Max",
    "price": "100",
    "path": "./img/max.jpeg",
    "article": "9",
    "color": "Green",
    "isFavourite": false
  },
  {
    "name": "Nike Trainers",
    "price": "120",
    "path": "./img/trainers.jpeg",
    "article": "10",
    "color": "Black",
    "isFavourite": false
  },
  {
    "name": "Nike Air VaporMax",
    "price": "90",
    "path": "./img/vaporMax.jpg",
    "article": "11",
    "color": "Light-Green",
    "isFavourite": false
  },
  {
    "name": "Nike Trainers",
    "price": "100",
    "path": "./img/nike-ca.jpg",
    "article": "12",
    "color": "Yellow",
    "isFavourite": false
  }
]
